[
  {
    "id": 0,
    "authorId": 26,
    "teamId": 0,
    "name": "open architecture Outdoors, Grocery & Baby Dynamic",
    "description": "Repellendus expedita dolorum saepe ut culpa nobis sunt itaque labore.",
    "deadline": "2021-08-03T01:08:10.3228394+00:00",
    "createdAt": "2019-07-17T06:42:48.376246+00:00"
  },
  {
    "id": 1,
    "authorId": 22,
    "teamId": 0,
    "name": "backing up Handcrafted Fresh Shoes challenge",
    "description": "Et doloribus et temporibus.",
    "deadline": "2021-09-12T19:17:47.2335223+00:00",
    "createdAt": "2020-08-25T17:49:50.4518054+00:00"
  },
  {
    "id": 2,
    "authorId": 31,
    "teamId": 0,
    "name": "Village",
    "description": "Non voluptatem voluptas libero.",
    "deadline": "2021-07-24T12:07:31.9357846+00:00",
    "createdAt": "2021-01-30T14:38:53.8838745+00:00"
  },
  {
    "id": 3,
    "authorId": 31,
    "teamId": 0,
    "name": "Dam",
    "description": "Quia et tempora hic pariatur voluptatem doloribus sunt.",
    "deadline": "2021-07-21T08:32:51.3354654+00:00",
    "createdAt": "2020-03-15T20:33:15.6731141+00:00"
  },
  {
    "id": 4,
    "authorId": 29,
    "teamId": 0,
    "name": "iterate project",
    "description": "Soluta non sed assumenda.",
    "deadline": "2021-06-25T11:25:00.7111264+00:00",
    "createdAt": "2019-07-03T03:39:01.9978679+00:00"
  },
  {
    "id": 5,
    "authorId": 29,
    "teamId": 0,
    "name": "Libyan Dinar Netherlands Antilles",
    "description": "Voluptatibus error ut id libero quam natus molestias natus.",
    "deadline": "2021-09-14T02:53:20.8003038+00:00",
    "createdAt": "2021-03-15T19:47:35.9335401+00:00"
  },
  {
    "id": 6,
    "authorId": 25,
    "teamId": 0,
    "name": "New Jersey capacitor program",
    "description": "Quas fuga qui eaque et corporis.",
    "deadline": "2021-09-23T03:11:42.1994133+00:00",
    "createdAt": "2020-03-22T16:51:40.1965166+00:00"
  },
  {
    "id": 7,
    "authorId": 25,
    "teamId": 0,
    "name": "connect",
    "description": "Voluptate et quae error est ut.",
    "deadline": "2021-11-29T21:13:16.9692138+00:00",
    "createdAt": "2021-01-03T03:55:46.0129331+00:00"
  },
  {
    "id": 8,
    "authorId": 31,
    "teamId": 0,
    "name": "matrix",
    "description": "Incidunt quam consequatur eos maxime qui.",
    "deadline": "2021-10-15T21:14:10.4493204+00:00",
    "createdAt": "2021-01-09T06:15:17.9611807+00:00"
  },
  {
    "id": 9,
    "authorId": 24,
    "teamId": 0,
    "name": "Unbranded Soft Pants Chief",
    "description": "Ea optio et et.",
    "deadline": "2021-08-30T02:27:10.3776173+00:00",
    "createdAt": "2019-08-25T12:59:27.7949549+00:00"
  },
  {
    "id": 10,
    "authorId": 28,
    "teamId": 0,
    "name": "Sleek Frozen Mouse",
    "description": "Molestias et inventore totam architecto explicabo dolorum et esse.",
    "deadline": "2021-06-29T12:43:45.0381411+00:00",
    "createdAt": "2019-10-17T07:00:17.8452998+00:00"
  },
  {
    "id": 11,
    "authorId": 38,
    "teamId": 1,
    "name": "THX",
    "description": "Officiis maiores exercitationem.",
    "deadline": "2021-10-03T14:57:28.9774796+00:00",
    "createdAt": "2020-01-16T07:05:05.69777+00:00"
  },
  {
    "id": 12,
    "authorId": 36,
    "teamId": 1,
    "name": "Cambridgeshire",
    "description": "Praesentium est similique velit libero inventore totam.",
    "deadline": "2021-11-22T00:45:47.2056714+00:00",
    "createdAt": "2020-06-09T17:10:47.9077465+00:00"
  },
  {
    "id": 13,
    "authorId": 49,
    "teamId": 1,
    "name": "protocol",
    "description": "Est doloribus expedita vel distinctio.",
    "deadline": "2021-08-02T02:31:39.3283064+00:00",
    "createdAt": "2020-03-29T20:50:09.0468406+00:00"
  },
  {
    "id": 14,
    "authorId": 46,
    "teamId": 1,
    "name": "Metal Facilitator",
    "description": "Autem id qui ut.",
    "deadline": "2021-08-02T09:18:48.6612819+00:00",
    "createdAt": "2020-04-19T05:51:04.8726359+00:00"
  },
  {
    "id": 15,
    "authorId": 38,
    "teamId": 1,
    "name": "transmitting Intelligent Metal Table unleash",
    "description": "Qui quia reiciendis molestiae est reprehenderit sint fugiat dolorum.",
    "deadline": "2021-11-30T03:13:22.9359388+00:00",
    "createdAt": "2019-11-22T13:41:23.7300052+00:00"
  },
  {
    "id": 16,
    "authorId": 55,
    "teamId": 2,
    "name": "Cuban Peso 6th generation",
    "description": "Ratione corporis inventore modi nesciunt quo qui illum rerum voluptatum.",
    "deadline": "2021-09-27T02:47:45.2074038+00:00",
    "createdAt": "2021-02-21T06:05:06.1524385+00:00"
  },
  {
    "id": 17,
    "authorId": 54,
    "teamId": 2,
    "name": "optimize solid state actuating",
    "description": "Non dolores id eligendi.",
    "deadline": "2021-08-27T23:42:54.2199855+00:00",
    "createdAt": "2020-02-27T14:41:57.8777711+00:00"
  },
  {
    "id": 18,
    "authorId": 55,
    "teamId": 2,
    "name": "Avon",
    "description": "Reprehenderit qui et praesentium cupiditate hic.",
    "deadline": "2021-11-17T00:36:46.8000523+00:00",
    "createdAt": "2021-04-18T08:47:30.8216119+00:00"
  },
  {
    "id": 19,
    "authorId": 65,
    "teamId": 3,
    "name": "revolutionary sensor integrate",
    "description": "Et nostrum aut doloribus optio recusandae.",
    "deadline": "2021-07-22T11:08:53.8455228+00:00",
    "createdAt": "2020-07-26T02:26:08.0088803+00:00"
  },
  {
    "id": 20,
    "authorId": 65,
    "teamId": 3,
    "name": "lime Cameroon Avon",
    "description": "Vero neque et perspiciatis eos architecto adipisci deleniti rerum.",
    "deadline": "2021-08-21T21:47:02.109966+00:00",
    "createdAt": "2019-12-01T00:15:00.670585+00:00"
  },
  {
    "id": 21,
    "authorId": 65,
    "teamId": 3,
    "name": "SQL revolutionize Credit Card Account",
    "description": "Ea facere soluta nostrum architecto quam.",
    "deadline": "2021-06-28T06:48:42.4297028+00:00",
    "createdAt": "2019-08-27T14:50:36.1312271+00:00"
  },
  {
    "id": 22,
    "authorId": 67,
    "teamId": 3,
    "name": "circuit",
    "description": "Tenetur et non consequuntur molestiae alias numquam omnis molestias inventore.",
    "deadline": "2021-10-07T20:01:12.6515298+00:00",
    "createdAt": "2020-09-11T13:33:10.5941776+00:00"
  },
  {
    "id": 23,
    "authorId": 67,
    "teamId": 3,
    "name": "Human cross-media",
    "description": "Assumenda facilis quis aut deleniti et rem.",
    "deadline": "2021-09-10T00:35:14.15384+00:00",
    "createdAt": "2021-05-23T06:30:39.1836259+00:00"
  },
  {
    "id": 24,
    "authorId": 63,
    "teamId": 3,
    "name": "Plain Global",
    "description": "Aliquam quasi dolore.",
    "deadline": "2021-11-30T18:26:25.8983258+00:00",
    "createdAt": "2020-03-24T11:40:48.3948371+00:00"
  },
  {
    "id": 25,
    "authorId": 64,
    "teamId": 3,
    "name": "SMS Unbranded Fresh",
    "description": "Perferendis molestias ex sed.",
    "deadline": "2021-07-12T07:18:06.848387+00:00",
    "createdAt": "2020-10-21T20:23:08.0273707+00:00"
  },
  {
    "id": 26,
    "authorId": 65,
    "teamId": 3,
    "name": "sensor Park",
    "description": "Quos rerum rem maiores.",
    "deadline": "2021-09-18T06:06:50.7148434+00:00",
    "createdAt": "2020-09-12T10:40:13.0643475+00:00"
  },
  {
    "id": 27,
    "authorId": 65,
    "teamId": 3,
    "name": "bypassing solid state",
    "description": "Sapiente deleniti voluptate qui est.",
    "deadline": "2021-08-21T01:17:40.0455707+00:00",
    "createdAt": "2020-04-20T10:36:41.3518888+00:00"
  },
  {
    "id": 28,
    "authorId": 67,
    "teamId": 3,
    "name": "Concrete",
    "description": "Temporibus non molestiae qui laboriosam placeat.",
    "deadline": "2021-09-10T03:07:42.5653935+00:00",
    "createdAt": "2021-05-08T12:36:00.2389615+00:00"
  },
  {
    "id": 29,
    "authorId": 63,
    "teamId": 3,
    "name": "Music",
    "description": "Facere nemo atque amet in iste.",
    "deadline": "2021-08-15T19:36:32.6649445+00:00",
    "createdAt": "2019-10-20T12:08:31.8732982+00:00"
  },
  {
    "id": 30,
    "authorId": 64,
    "teamId": 3,
    "name": "Plastic",
    "description": "Quia aut voluptatem eius est et culpa cumque quia.",
    "deadline": "2021-07-14T15:01:23.1195733+00:00",
    "createdAt": "2019-08-23T13:07:35.5461833+00:00"
  },
  {
    "id": 31,
    "authorId": 71,
    "teamId": 4,
    "name": "parsing connect",
    "description": "Ullam enim in minima.",
    "deadline": "2021-09-06T19:47:13.1332692+00:00",
    "createdAt": "2021-04-20T10:22:21.5842329+00:00"
  },
  {
    "id": 32,
    "authorId": 74,
    "teamId": 4,
    "name": "Tasty copying Checking Account",
    "description": "Voluptatem dicta illo ut ut reiciendis sint porro in sit.",
    "deadline": "2021-10-03T02:06:35.3996098+00:00",
    "createdAt": "2020-01-26T16:39:03.6478616+00:00"
  },
  {
    "id": 33,
    "authorId": 68,
    "teamId": 4,
    "name": "Trail",
    "description": "Harum non aperiam praesentium perspiciatis optio voluptas.",
    "deadline": "2021-07-16T07:27:46.844206+00:00",
    "createdAt": "2021-05-12T00:58:10.841638+00:00"
  },
  {
    "id": 34,
    "authorId": 73,
    "teamId": 4,
    "name": "array virtual",
    "description": "Vel eaque facere et et labore.",
    "deadline": "2021-07-30T10:58:06.1055667+00:00",
    "createdAt": "2019-11-28T01:21:45.8521989+00:00"
  },
  {
    "id": 35,
    "authorId": 73,
    "teamId": 4,
    "name": "Refined whiteboard Borders",
    "description": "Dolore est nobis.",
    "deadline": "2021-12-14T10:10:42.8476515+00:00",
    "createdAt": "2020-06-09T16:43:03.8964789+00:00"
  },
  {
    "id": 36,
    "authorId": 74,
    "teamId": 4,
    "name": "gold Fantastic Steel Chips",
    "description": "Vel enim modi libero.",
    "deadline": "2021-07-21T02:58:43.7487443+00:00",
    "createdAt": "2020-01-20T22:22:20.8769856+00:00"
  },
  {
    "id": 37,
    "authorId": 76,
    "teamId": 4,
    "name": "mindshare systemic New Jersey",
    "description": "Placeat iure sunt quo libero sunt aut et molestias eos.",
    "deadline": "2021-08-08T08:45:49.5475316+00:00",
    "createdAt": "2020-09-29T17:04:16.0958935+00:00"
  },
  {
    "id": 38,
    "authorId": 74,
    "teamId": 4,
    "name": "Licensed Soft Soap synthesize Divide",
    "description": "Voluptatem recusandae aut.",
    "deadline": "2021-09-11T20:37:07.9353832+00:00",
    "createdAt": "2020-11-18T12:07:46.1917041+00:00"
  },
  {
    "id": 39,
    "authorId": 76,
    "teamId": 4,
    "name": "deposit open-source Licensed",
    "description": "Sed corporis sequi enim et.",
    "deadline": "2021-10-29T06:39:46.801621+00:00",
    "createdAt": "2019-11-10T15:49:22.9841897+00:00"
  },
  {
    "id": 40,
    "authorId": 76,
    "teamId": 4,
    "name": "solution-oriented ubiquitous",
    "description": "Dolore temporibus aut in qui eum assumenda.",
    "deadline": "2021-12-02T01:06:39.1104838+00:00",
    "createdAt": "2020-05-02T13:48:57.751252+00:00"
  },
  {
    "id": 41,
    "authorId": 78,
    "teamId": 5,
    "name": "override Health & Outdoors",
    "description": "Deleniti ut voluptatem id ducimus.",
    "deadline": "2021-12-06T22:21:02.291536+00:00",
    "createdAt": "2020-07-31T05:30:37.838524+00:00"
  },
  {
    "id": 42,
    "authorId": 77,
    "teamId": 5,
    "name": "Stravenue Personal Loan Account",
    "description": "Numquam in odio.",
    "deadline": "2021-12-03T14:44:13.4923418+00:00",
    "createdAt": "2019-10-28T10:19:59.0235124+00:00"
  },
  {
    "id": 43,
    "authorId": 78,
    "teamId": 5,
    "name": "Kansas firewall",
    "description": "Aut non deserunt et est illum.",
    "deadline": "2021-12-10T19:11:13.5724739+00:00",
    "createdAt": "2021-05-06T11:53:00.6882002+00:00"
  },
  {
    "id": 44,
    "authorId": 77,
    "teamId": 5,
    "name": "Dynamic Loop Concrete",
    "description": "Voluptatem placeat perferendis at deserunt.",
    "deadline": "2021-10-03T08:31:46.8908489+00:00",
    "createdAt": "2019-11-07T02:20:52.3280647+00:00"
  },
  {
    "id": 45,
    "authorId": 78,
    "teamId": 5,
    "name": "Money Market Account JSON",
    "description": "Officia dicta asperiores et.",
    "deadline": "2021-09-23T02:46:08.360406+00:00",
    "createdAt": "2020-04-09T00:43:00.0787715+00:00"
  },
  {
    "id": 46,
    "authorId": 78,
    "teamId": 5,
    "name": "Outdoors, Kids & Computers Bedfordshire Berkshire",
    "description": "Numquam sed voluptatibus voluptatibus quas.",
    "deadline": "2021-10-08T02:07:40.9504841+00:00",
    "createdAt": "2020-08-21T05:02:20.3375031+00:00"
  },
  {
    "id": 47,
    "authorId": 77,
    "teamId": 5,
    "name": "background Awesome Concrete Hat array",
    "description": "Iusto unde fuga.",
    "deadline": "2021-10-06T11:58:37.4008817+00:00",
    "createdAt": "2019-11-18T07:38:49.4159192+00:00"
  },
  {
    "id": 48,
    "authorId": 78,
    "teamId": 5,
    "name": "compelling Director virtual",
    "description": "Quis consequatur est qui.",
    "deadline": "2021-08-07T07:30:51.1850889+00:00",
    "createdAt": "2020-04-06T12:08:44.8584885+00:00"
  },
  {
    "id": 49,
    "authorId": 78,
    "teamId": 5,
    "name": "Cape Verde virtual",
    "description": "Dolorem sunt optio sed excepturi dolores sequi ipsa.",
    "deadline": "2021-11-14T12:32:00.4158865+00:00",
    "createdAt": "2019-12-29T19:48:06.8822589+00:00"
  },
  {
    "id": 50,
    "authorId": 78,
    "teamId": 5,
    "name": "Bedfordshire Generic Cotton Chair",
    "description": "Recusandae itaque necessitatibus sunt unde est.",
    "deadline": "2021-09-16T01:51:20.392354+00:00",
    "createdAt": "2020-01-02T00:56:00.9687162+00:00"
  },
  {
    "id": 51,
    "authorId": 78,
    "teamId": 5,
    "name": "Practical Soft Hat",
    "description": "Et dolore quaerat pariatur illum sed amet dolores deleniti.",
    "deadline": "2021-08-09T15:14:25.0180162+00:00",
    "createdAt": "2021-06-04T00:57:33.9342261+00:00"
  },
  {
    "id": 52,
    "authorId": 77,
    "teamId": 5,
    "name": "strategize bypass Cotton",
    "description": "Possimus itaque occaecati ratione nisi.",
    "deadline": "2021-06-28T21:27:44.9469928+00:00",
    "createdAt": "2020-09-03T04:32:37.7820963+00:00"
  },
  {
    "id": 53,
    "authorId": 78,
    "teamId": 5,
    "name": "compress",
    "description": "Rerum nam ipsam repudiandae vel animi numquam et placeat.",
    "deadline": "2021-11-13T22:44:10.2230396+00:00",
    "createdAt": "2020-08-27T06:52:57.1003543+00:00"
  },
  {
    "id": 54,
    "authorId": 81,
    "teamId": 6,
    "name": "Bhutanese Ngultrum Gorgeous",
    "description": "Nisi qui quia inventore maiores qui aut quas dolor et.",
    "deadline": "2021-09-28T21:50:08.4696444+00:00",
    "createdAt": "2021-03-16T17:32:02.1857021+00:00"
  },
  {
    "id": 55,
    "authorId": 82,
    "teamId": 6,
    "name": "Practical Wooden Car Haiti Unions",
    "description": "Mollitia tenetur non numquam.",
    "deadline": "2021-10-12T16:58:34.9770054+00:00",
    "createdAt": "2019-09-08T01:47:23.7032528+00:00"
  },
  {
    "id": 56,
    "authorId": 80,
    "teamId": 6,
    "name": "Oklahoma",
    "description": "Non blanditiis quo est sit amet enim explicabo iusto.",
    "deadline": "2021-09-09T13:06:48.0394059+00:00",
    "createdAt": "2021-01-26T19:43:20.5975913+00:00"
  },
  {
    "id": 57,
    "authorId": 82,
    "teamId": 6,
    "name": "forecast Home & Toys Global",
    "description": "Ut culpa aut blanditiis sint corrupti.",
    "deadline": "2021-10-10T12:44:09.2885111+00:00",
    "createdAt": "2020-08-03T22:47:08.4585349+00:00"
  },
  {
    "id": 58,
    "authorId": 82,
    "teamId": 6,
    "name": "web services Handmade Metal Hat card",
    "description": "Commodi voluptatum eligendi.",
    "deadline": "2021-09-01T12:51:00.1651103+00:00",
    "createdAt": "2020-11-27T12:26:18.2547011+00:00"
  },
  {
    "id": 59,
    "authorId": 83,
    "teamId": 6,
    "name": "system-worthy input Data",
    "description": "Et consectetur dolores quas.",
    "deadline": "2021-11-26T13:32:57.4526908+00:00",
    "createdAt": "2020-02-18T03:51:08.6368736+00:00"
  },
  {
    "id": 60,
    "authorId": 92,
    "teamId": 7,
    "name": "deposit radical Proactive",
    "description": "Architecto qui ut aut neque.",
    "deadline": "2021-12-10T21:33:22.144638+00:00",
    "createdAt": "2020-04-28T02:15:52.9595246+00:00"
  },
  {
    "id": 61,
    "authorId": 87,
    "teamId": 7,
    "name": "Home Loan Account Re-engineered Australian Dollar",
    "description": "Laborum est similique.",
    "deadline": "2021-09-24T13:40:02.6100459+00:00",
    "createdAt": "2020-04-18T05:46:30.8905128+00:00"
  },
  {
    "id": 62,
    "authorId": 84,
    "teamId": 7,
    "name": "withdrawal XML Books",
    "description": "Nam harum officia.",
    "deadline": "2021-10-22T23:37:45.3334507+00:00",
    "createdAt": "2021-03-12T18:41:07.0705771+00:00"
  },
  {
    "id": 63,
    "authorId": 96,
    "teamId": 7,
    "name": "Awesome Personal Loan Account Ethiopian Birr",
    "description": "Error placeat nemo.",
    "deadline": "2021-10-13T00:17:35.1531305+00:00",
    "createdAt": "2021-02-23T09:54:04.107478+00:00"
  },
  {
    "id": 64,
    "authorId": 95,
    "teamId": 7,
    "name": "deposit",
    "description": "Quasi minus et atque minima totam iste doloribus.",
    "deadline": "2021-11-11T16:14:45.28131+00:00",
    "createdAt": "2020-05-23T11:36:23.9187435+00:00"
  },
  {
    "id": 65,
    "authorId": 101,
    "teamId": 7,
    "name": "Small Fresh Pants Home Loan Account",
    "description": "Et quidem quia.",
    "deadline": "2021-10-08T11:16:55.9369968+00:00",
    "createdAt": "2020-04-17T13:07:39.1858192+00:00"
  },
  {
    "id": 66,
    "authorId": 97,
    "teamId": 7,
    "name": "Fantastic Steel Shirt",
    "description": "Asperiores sint rerum.",
    "deadline": "2021-10-10T03:03:02.2721778+00:00",
    "createdAt": "2020-08-28T22:03:46.2782746+00:00"
  },
  {
    "id": 67,
    "authorId": 85,
    "teamId": 7,
    "name": "primary Tasty Fresh Fish",
    "description": "Voluptatibus id corporis.",
    "deadline": "2021-10-29T21:13:56.2944597+00:00",
    "createdAt": "2019-10-30T13:42:19.4328527+00:00"
  },
  {
    "id": 68,
    "authorId": 84,
    "teamId": 7,
    "name": "deposit Handmade Wooden Chair",
    "description": "Qui nostrum nesciunt a in cupiditate hic quasi.",
    "deadline": "2021-08-07T22:37:48.7163495+00:00",
    "createdAt": "2020-09-07T11:44:25.5610007+00:00"
  },
  {
    "id": 69,
    "authorId": 92,
    "teamId": 7,
    "name": "Licensed",
    "description": "Nulla tempore molestiae necessitatibus voluptatum omnis provident accusamus cum non.",
    "deadline": "2021-08-26T07:02:13.2279163+00:00",
    "createdAt": "2020-05-14T08:24:50.3065639+00:00"
  },
  {
    "id": 70,
    "authorId": 90,
    "teamId": 7,
    "name": "optical",
    "description": "Illo temporibus nam repellendus ut.",
    "deadline": "2021-06-23T15:53:06.4660717+00:00",
    "createdAt": "2020-06-28T14:01:02.3053978+00:00"
  },
  {
    "id": 71,
    "authorId": 87,
    "teamId": 7,
    "name": "National",
    "description": "Eius error recusandae libero cumque commodi reprehenderit voluptatem et omnis.",
    "deadline": "2021-12-10T16:01:24.4601643+00:00",
    "createdAt": "2020-03-31T22:44:05.8525593+00:00"
  },
  {
    "id": 72,
    "authorId": 91,
    "teamId": 7,
    "name": "driver Orchestrator",
    "description": "Odio sed modi sed nemo magni neque rerum nam.",
    "deadline": "2021-12-08T08:16:37.4182642+00:00",
    "createdAt": "2020-01-26T17:06:00.345533+00:00"
  },
  {
    "id": 73,
    "authorId": 89,
    "teamId": 7,
    "name": "lavender Port e-business",
    "description": "Rerum molestiae ut aperiam quas quo ab commodi.",
    "deadline": "2021-09-05T04:47:57.7733646+00:00",
    "createdAt": "2020-12-13T15:45:34.1257351+00:00"
  },
  {
    "id": 74,
    "authorId": 92,
    "teamId": 7,
    "name": "Delaware",
    "description": "Autem repellat ea fuga ut ut esse est eum ut.",
    "deadline": "2021-08-04T16:24:13.6789294+00:00",
    "createdAt": "2021-04-20T10:27:55.9581408+00:00"
  },
  {
    "id": 75,
    "authorId": 91,
    "teamId": 7,
    "name": "Kids Tasty",
    "description": "Perferendis asperiores consectetur cumque rem beatae quibusdam non ea.",
    "deadline": "2021-09-18T06:28:02.2803136+00:00",
    "createdAt": "2020-07-02T08:57:03.0350417+00:00"
  },
  {
    "id": 76,
    "authorId": 109,
    "teamId": 8,
    "name": "Lodge",
    "description": "Aut ut odit non cumque.",
    "deadline": "2021-07-20T16:58:36.4553333+00:00",
    "createdAt": "2020-06-28T11:17:11.8131449+00:00"
  },
  {
    "id": 77,
    "authorId": 104,
    "teamId": 8,
    "name": "Personal Loan Account orchestrate hacking",
    "description": "Voluptas saepe eum aut distinctio voluptatem praesentium.",
    "deadline": "2021-11-02T21:10:35.1705719+00:00",
    "createdAt": "2019-09-13T02:33:24.4765452+00:00"
  },
  {
    "id": 78,
    "authorId": 105,
    "teamId": 8,
    "name": "Sleek Cotton Keyboard COM neural",
    "description": "At nostrum enim quo cumque iusto quisquam qui.",
    "deadline": "2021-11-30T11:21:03.2314281+00:00",
    "createdAt": "2021-03-08T18:10:57.4094461+00:00"
  },
  {
    "id": 79,
    "authorId": 104,
    "teamId": 8,
    "name": "orchestrate disintermediate",
    "description": "Et et expedita rerum.",
    "deadline": "2021-08-26T22:27:26.4839892+00:00",
    "createdAt": "2020-03-10T19:03:12.1246224+00:00"
  },
  {
    "id": 80,
    "authorId": 106,
    "teamId": 8,
    "name": "Springs",
    "description": "Deleniti accusantium vel aliquid doloremque iure.",
    "deadline": "2021-11-03T07:52:30.9351581+00:00",
    "createdAt": "2021-05-26T01:34:28.6378602+00:00"
  },
  {
    "id": 81,
    "authorId": 108,
    "teamId": 8,
    "name": "Intelligent synergies",
    "description": "Quod beatae et optio sit reiciendis omnis cum sint.",
    "deadline": "2021-07-25T03:22:53.344656+00:00",
    "createdAt": "2021-03-03T14:25:25.7224981+00:00"
  },
  {
    "id": 82,
    "authorId": 111,
    "teamId": 8,
    "name": "invoice Fort",
    "description": "Laboriosam aut accusamus sit saepe et ut velit.",
    "deadline": "2021-08-24T20:41:20.0109658+00:00",
    "createdAt": "2019-11-12T21:52:24.5769742+00:00"
  },
  {
    "id": 83,
    "authorId": 109,
    "teamId": 8,
    "name": "communities EXE",
    "description": "Ullam voluptatem id dignissimos ea porro ut eveniet ipsum aut.",
    "deadline": "2021-09-25T15:16:36.5300856+00:00",
    "createdAt": "2020-12-18T10:55:57.9299305+00:00"
  },
  {
    "id": 84,
    "authorId": 106,
    "teamId": 8,
    "name": "Assistant California",
    "description": "Reiciendis velit amet.",
    "deadline": "2021-10-13T01:43:02.5133689+00:00",
    "createdAt": "2020-01-08T05:03:25.9219474+00:00"
  },
  {
    "id": 85,
    "authorId": 112,
    "teamId": 8,
    "name": "Solutions drive",
    "description": "Reiciendis aut facere harum omnis non eius recusandae aliquam occaecati.",
    "deadline": "2021-09-08T14:16:02.345795+00:00",
    "createdAt": "2020-01-11T12:12:40.8230334+00:00"
  },
  {
    "id": 86,
    "authorId": 110,
    "teamId": 8,
    "name": "Tasty Wooden Chicken Peso Uruguayo",
    "description": "Voluptas ut corrupti fugit.",
    "deadline": "2021-09-01T07:14:07.8562266+00:00",
    "createdAt": "2021-06-14T22:07:25.100923+00:00"
  },
  {
    "id": 87,
    "authorId": 107,
    "teamId": 8,
    "name": "copy Hong Kong Infrastructure",
    "description": "Quidem perferendis esse enim ut.",
    "deadline": "2021-07-19T17:14:22.9708238+00:00",
    "createdAt": "2019-11-29T05:55:20.958841+00:00"
  },
  {
    "id": 88,
    "authorId": 107,
    "teamId": 8,
    "name": "Cambridgeshire real-time invoice",
    "description": "Expedita itaque repellendus eos et.",
    "deadline": "2021-08-08T22:23:57.2325977+00:00",
    "createdAt": "2020-06-07T10:29:37.1398476+00:00"
  },
  {
    "id": 89,
    "authorId": 103,
    "teamId": 8,
    "name": "Swiss Franc Bedfordshire",
    "description": "Sit dolor saepe officiis voluptas eos enim in dolores maiores.",
    "deadline": "2021-07-03T04:35:10.2712948+00:00",
    "createdAt": "2021-04-21T04:12:37.6297882+00:00"
  },
  {
    "id": 90,
    "authorId": 107,
    "teamId": 8,
    "name": "Reunion hack",
    "description": "Repellat officiis blanditiis ipsum velit pariatur quis dolores quaerat autem.",
    "deadline": "2021-10-17T05:20:10.2509511+00:00",
    "createdAt": "2019-06-25T07:41:55.6955478+00:00"
  },
  {
    "id": 91,
    "authorId": 115,
    "teamId": 9,
    "name": "Wooden",
    "description": "Saepe sit distinctio veritatis aliquam odio.",
    "deadline": "2021-11-12T19:17:54.1738048+00:00",
    "createdAt": "2021-04-26T02:25:29.1987347+00:00"
  },
  {
    "id": 92,
    "authorId": 116,
    "teamId": 9,
    "name": "THX solid state Awesome Concrete Chair",
    "description": "Est atque voluptatem a facilis aut est nulla doloribus.",
    "deadline": "2021-11-08T08:39:31.1117124+00:00",
    "createdAt": "2019-10-30T19:53:28.5986128+00:00"
  },
  {
    "id": 93,
    "authorId": 117,
    "teamId": 9,
    "name": "action-items PNG",
    "description": "Recusandae et perferendis autem sit.",
    "deadline": "2021-09-21T01:20:56.6077298+00:00",
    "createdAt": "2020-03-27T18:56:06.3159036+00:00"
  },
  {
    "id": 94,
    "authorId": 119,
    "teamId": 9,
    "name": "Developer Mobility",
    "description": "Eaque voluptatem et.",
    "deadline": "2021-12-03T00:46:03.8284801+00:00",
    "createdAt": "2019-09-26T16:47:04.383587+00:00"
  },
  {
    "id": 95,
    "authorId": 116,
    "teamId": 9,
    "name": "Generic Rubber Bacon",
    "description": "Cupiditate ipsam ex quaerat blanditiis.",
    "deadline": "2021-07-06T22:53:44.6891399+00:00",
    "createdAt": "2020-12-24T01:50:44.9600861+00:00"
  },
  {
    "id": 96,
    "authorId": 115,
    "teamId": 9,
    "name": "metrics",
    "description": "Voluptatem occaecati laboriosam voluptatem.",
    "deadline": "2021-09-03T23:58:34.6912828+00:00",
    "createdAt": "2020-04-02T22:59:29.1267673+00:00"
  }
]
